// Jest Snapshot v1, https://goo.gl/fbAQLP

exports[`Page structures API Card 1`] = `
<BrowserRouter>
  renderer.create(
  <APICard />
  ).toJSON()
</BrowserRouter>
`;

exports[`Page structures Artist Card 1`] = `
<BrowserRouter>
  renderer.create(
  <ArtistCard />
  ).toJSON()
</BrowserRouter>
`;

exports[`Page structures Category Card 1`] = `
<BrowserRouter>
  renderer.create(
  <CategoryCard />
  ).toJSON()
</BrowserRouter>
`;

exports[`Page structures City Card 1`] = `
<BrowserRouter>
  renderer.create(
  <CityCard />
  ).toJSON()
</BrowserRouter>
`;

exports[`Page structures Concert Card 1`] = `
<BrowserRouter>
  renderer.create(
  <ConcertCard />
  ).toJSON()
</BrowserRouter>
`;

exports[`Page structures Developer Card 1`] = `
<BrowserRouter>
  renderer.create(
  <DeveloperCard />
  ).toJSON()
</BrowserRouter>
`;

exports[`Page structures Navigation Bar 1`] = `
<BrowserRouter>
  renderer.create(
  <NavBar />
  ).toJSON()
</BrowserRouter>
`;

exports[`Searching, Sorting and Filtering Filter Dropdown  1`] = `
<BrowserRouter>
  renderer.create(
  <FilterDropdown />
  ).toJSON()
</BrowserRouter>
`;

exports[`Searching, Sorting and Filtering Filter Dropdown (Initialized) 1`] = `
<BrowserRouter>
  renderer.create(
  <FilterDropdown
    props={
      Object {
        "items": Array [
          "Sort",
          "Name",
          "Population",
          "Rating",
          "Budget",
          "Safety",
        ],
        "onChange": [Function],
        "scroll": null,
        "title": "Sort",
      }
    }
  />
  ).toJSON()
</BrowserRouter>
`;

exports[`Searching, Sorting and Filtering Range Slider (Initialized) 1`] = `
<BrowserRouter>
  renderer.create(
  <RangeSlider
    props={
      Object {
        "discrete": null,
        "max": 10,
        "min": 0,
        "onChange": [Function],
      }
    }
  />
  ).toJSON()
</BrowserRouter>
`;

exports[`Searching, Sorting and Filtering Range Slider 1`] = `
<BrowserRouter>
  renderer.create(
  <RangeSlider />
  ).toJSON()
</BrowserRouter>
`;

exports[`Searching, Sorting and Filtering Search Page 1`] = `
<BrowserRouter>
  renderer.create(
  <Search />
  ).toJSON()
</BrowserRouter>
`;

exports[`Splash pages About 1`] = `
<BrowserRouter>
  renderer.create(
  <About />
  ).toJSON()
</BrowserRouter>
`;

exports[`Splash pages Artists 1`] = `
<BrowserRouter>
  renderer.create(
  <Artists />
  ).toJSON()
</BrowserRouter>
`;

exports[`Splash pages Cities 1`] = `
<BrowserRouter>
  renderer.create(
  <Cities />
  ).toJSON()
</BrowserRouter>
`;

exports[`Splash pages Concerts 1`] = `
<BrowserRouter>
  renderer.create(
  <Concerts />
  ).toJSON()
</BrowserRouter>
`;

exports[`Splash pages Home 1`] = `
<BrowserRouter>
  renderer.create(
  <Home />
  ).toJSON()
</BrowserRouter>
`;
