<svg xmlns="http://www.w3.org/2000/svg" width="478" height="672" fill="none" viewBox="0 0 478 672">
  <path fill="#fff" d="M238.973 0C106.989 0 0 106.995 0 238.987 0 370.971 246.253 672 246.253 672S477.96 370.973 477.96 238.987C477.96 107 370.96 0 238.973 0Zm0 48.51a190.48 190.48 0 0 1 190.48 190.473 190.508 190.508 0 0 1-55.786 134.693 190.48 190.48 0 0 1-134.694 55.787 190.48 190.48 0 0 1-190.472-190.48 190.435 190.435 0 0 1 55.792-134.68 190.454 190.454 0 0 1 134.68-55.792Z"/>
  <path fill="#fff" fill-rule="evenodd" d="M223.467 159.6a11.848 11.848 0 0 0-11.24 8.109l-29.697 89.12c-5.521-3.906-12.229-6.213-19.438-6.213-18.588 0-33.885 15.297-33.885 33.88 0 18.582 15.297 33.88 33.885 33.88 16.896 0 31.063-12.641 33.5-28.896.115-.266.219-.537.313-.808l35.104-105.374h88.432l-24.625 73.917c-5.615-4.135-12.526-6.599-19.974-6.599-18.588 0-33.88 15.298-33.88 33.88 0 18.583 15.292 33.88 33.88 33.88 16.156 0 29.818-11.557 33.115-26.781l-.005-.005a11.853 11.853 0 0 0 1.359-2.917L348.123 175.2a11.835 11.835 0 0 0-1.63-10.677 11.851 11.851 0 0 0-9.62-4.922l-113.406-.001Z" clip-rule="evenodd"/>
</svg>
